<?xml version="1.0" encoding="utf-8"?>

<!-- Uploaded to: SVG Repo, www.svgrepo.com, Generator: SVG Repo Mixer Tools -->
<svg width="800px" height="800px" viewBox="0 0 32 32" fill="none" xmlns="http://www.w3.org/2000/svg">
<g clip-path="url(#clip0_901_1558)">
<path d="M29 7H30C30.553 7 31 7.447 31 8V30C31 30.553 30.553 31 30 31H2C1.447 31 1 30.553 1 30V8C1 7.447 1.447 7 2 7H19M6 28V19H10V28M14 28V13H18V28M22 28V1H26V28" stroke="#000000" stroke-width="2" stroke-linecap="round" stroke-linejoin="round"/>
</g>
<defs>
<clipPath id="clip0_901_1558">
<rect width="32" height="32" fill="white"/>
</clipPath>
</defs>
</svg>